Categories:Reading,Internet
License:GPLv3+
Author Name:Daniel Schaal
Author Email:daniel@schaal.email
Web Site:
Source Code:https://github.com/schaal/ocreader
Issue Tracker:https://github.com/schaal/ocreader/issues
Changelog:https://github.com/schaal/ocreader/blob/HEAD/CHANGELOG.md

Auto Name:OCReader
Summary:Reader for Nextcloud news
Description:
OCReader is a feed reader for [https://github.com/nextcloud/news Nextcloud
News], just login with your ownCloud/Nextcloud credentials and you can start
reading your feeds.

It features a simple but colorful interface.
.

Repo Type:git
Repo:https://github.com/schaal/ocreader

Build:0.1a,1
    commit=0.1a
    subdir=app
    gradle=yes

Build:0.1b,2
    commit=v0.1b
    subdir=app
    gradle=yes

Build:0.1b2,3
    commit=v0.1b2
    subdir=app
    gradle=yes

Build:0.1,4
    commit=v0.1
    subdir=app
    gradle=yes

Build:0.2,5
    commit=v0.2
    subdir=app
    gradle=yes

Build:0.3,6
    commit=v0.3
    subdir=app
    gradle=yes

Build:0.4,7
    commit=v0.4
    subdir=app
    gradle=yes

Build:0.5,8
    commit=v0.5
    subdir=app
    gradle=yes

Build:0.6,9
    commit=v0.6
    subdir=app
    submodules=yes
    gradle=yes

Build:0.7,10
    commit=v0.7
    subdir=app
    gradle=yes

Build:0.8,11
    commit=v0.8
    subdir=app
    gradle=yes

Build:0.9,12
    commit=v0.9
    subdir=app
    gradle=yes

Build:0.10,13
    commit=v0.10
    subdir=app
    gradle=yes

Build:0.11,14
    commit=v0.11
    subdir=app
    gradle=yes

Build:0.12,15
    commit=v0.12
    subdir=app
    gradle=yes

Build:0.13,16
    commit=v0.13
    subdir=app
    gradle=yes

Build:0.14,17
    commit=v0.14
    subdir=app
    gradle=yes

Build:0.15,18
    commit=v0.15
    subdir=app
    gradle=yes

Build:0.16,19
    commit=v0.16
    subdir=app
    gradle=yes

Build:0.17,20
    commit=v0.17
    subdir=app
    gradle=yes

Build:0.18,21
    commit=v0.18
    subdir=app
    gradle=yes

Build:0.19,22
    commit=v0.19
    subdir=app
    gradle=yes

Build:0.21,24
    commit=v0.21
    subdir=app
    gradle=yes

Build:0.22,25
    commit=v0.22
    subdir=app
    gradle=yes

Build:0.23,26
    commit=v0.23
    subdir=app
    gradle=yes

Auto Update Mode:Version v%v
Update Check Mode:Tags
Current Version:0.23
Current Version Code:26
